manipulaciones-de-data-frames.Rmd
…
#cojo los datos, los agrupo por dia de la semana (0, 6) y para cada subgrupo calculo la media

#añadimos mas de una variable de agrupamiento
#calculamos la media de la semana distinguiendo entre los meses del año
resumen_mompean <- mompean %>% group_by(mes, diadelasemana) %>% 
  summarise(SO2medio = mean(SO2, na.rm = TRUE))

#podemos usar cualquier funcion que produzca un unico valor: mean, max, min, var, sd, n, ...
mompean %>% group_by(mes, diadelasemana) %>% 
  summarise(SO2max = max(SO2, na.rm = TRUE), numfilas = n()) #ya tenemos el numero de mediciones que se han tomado 

## Source: local data frame [84 x 4]
## Groups: mes [?]
## 
##      mes diadelasemana SO2max numfilas
##    <int>         <int>  <int>    <int>
## 1      1             0     87      528
## 2      1             1    258      527
## 3      1             2    210      524
## 4      1             3    200      502
## 5      1             4    335      497
## 6      1             5     64      512
## 7      1             6     70      528
## 8      2             0     23      480
## 9      2             1     26      476
## 10     2             2     77      477
## # ... with 74 more rows
…
